Analysis of new data
…
Preregistration

Open materials

Open data

Results

Descriptive statistics

## Warning: NAs introduced by coercion

## Warning: NAs introduced by coercion

## # A tibble: 4,203 x 28
##    prolificid subject_id   age gender label trialnum status outcome getsout
##    <chr>           <int> <int> <chr>  <chr>    <dbl>  <dbl>   <dbl>   <dbl>
##  1 5dadad152~    4382999    20 F      scal~        8      1       2       1
##  2 5dadad152~    4382999    20 F      scal~       19      2       1       1
##  3 5dadad152~    4382999    20 F      scal~       17      2       1       1
##  4 5dadad152~    4382999    20 F      scal~       16      1       1       1
##  5 5dadad152~    4382999    20 F      scal~        9      2       2       1
##  6 5dadad152~    4382999    20 F      scal~       12      1       1       2
##  7 5c73e8a67~    9797764    38 M      scal~       11      2       1       2
##  8 5dadad152~    4382999    20 F      scal~       11      2       1       2
##  9 5c73e8a67~    9797764    38 M      scal~        5      2       2       2
## 10 5dadad152~    4382999    20 F      scal~       10      1       1       2
## # ... with 4,193 more rows, and 19 more variables: bloc <int>, img1 <int>,
## #   img2 <int>, buttonchoice <int>, rtchoice <int>, rt <dbl>,
## #   response <int>, key_press <lgl>, time_elapsed <int>,
## #   internal_node_id <chr>, trial_type <chr>, trial_index <int>,
## #   stimulus <chr>, responses <chr>, date <chr>, time <chr>,
## #   datefinish <chr>, timefinish <chr>, X <dbl>

Exclusions

## # A tibble: 25 x 4
##    subject_id missed_trials trial_count consec_resp
##         <int> <lgl>         <lgl>       <lgl>      
##  1    4382999 TRUE          NA          NA         
##  2    3977321 TRUE          NA          NA         
##  3    2995551 TRUE          NA          NA         
##  4    7942662 TRUE          NA          NA         
##  5    9211009 TRUE          NA          NA         
##  6    9480462 TRUE          NA          TRUE       
##  7    4696355 TRUE          NA          NA         
##  8    6543600 TRUE          NA          NA         
##  9    1155559 TRUE          NA          TRUE       
## 10    6416491 TRUE          NA          NA         
## # ... with 15 more rows
…
