Analysis of new data
…
Open science

Preregistration

Open materials

Open data

Results

Descriptive statistics

Load data

## # A tibble: 5,738 x 32
##    prolificid subject_id   age gender label trialnum status outcome getsout
##    <chr>           <int> <int> <chr>  <chr>    <int>  <int>   <int>   <int>
##  1 5d4755feb~    8551490    NA ""     surv~       NA     NA      NA      NA
##  2 5d4755feb~    8551490    25 M      surv~       NA     NA      NA      NA
##  3 5d4755feb~    8551490    25 M      scal~       36      2       1       2
##  4 5d4755feb~    8551490    25 M      scal~       37      1       2       1
##  5 5d4755feb~    8551490    25 M      scal~        1      1       1       1
##  6 5d4755feb~    8551490    25 M      scal~       12      2       1       2
##  7 5d4755feb~    8551490    25 M      scal~        2      2       1       1
##  8 5d4755feb~    8551490    25 M      scal~       15      1       2       2
##  9 5d4755feb~    8551490    25 M      scal~        9      1       1       1
## 10 5d4755feb~    8551490    25 M      scal~       21      1       2       1
## # ... with 5,728 more rows, and 23 more variables: bloc <int>, img1 <int>,
## #   img2 <int>, buttonchoice <int>, rtchoice <int>, rt <dbl>,
## #   response <int>, key_press <lgl>, time_elapsed <int>,
## #   internal_node_id <chr>, trial_type <chr>, trial_index <int>,
## #   stimulus <chr>, responses <chr>, playerout <chr>,
## #   playeroutnumber <chr>, rated <chr>, date <chr>, time <chr>,
## #   datefinish <chr>, timefinish <chr>, X <chr>, X.1 <dbl>

Exclusions

## # A tibble: 29 x 4
##    subject_id missed_trials trial_count consec_resp
##         <int> <lgl>         <lgl>       <lgl>      
##  1    1818214 TRUE          NA          NA         
##  2    4381051 TRUE          NA          NA         
##  3    3827758 TRUE          NA          TRUE       
##  4    8604783 TRUE          NA          NA         
##  5    5909004 TRUE          NA          NA         
##  6    1173344 TRUE          NA          NA         
##  7    7030709 TRUE          NA          NA         
##  8    8355714 TRUE          NA          TRUE       
##  9    3304915 TRUE          TRUE        NA         
## 10    4455869 TRUE          NA          NA         
## # ... with 19 more rows
…
