Analysis of Experiment 3 data
…
Open science

Preregistration

Experiment 2 was preregistered on the Open Science Framework platform (OSF). The analysis plan deviated from the preregistration in that participants are removed for using the same gamble choice response key on consecutive trials only if they used the same key for all trials in a block (after removing trials with no response).

Open materials

Materials for the studies can be found on the GitHub repository as it stood on 18th June 2020.

Open data

We are happy to share the experimental data for these pilot studies, but may not upload them to a repository unless requested. Data for the main experiments will available online.

## # A tibble: 5,155 x 44
##    prolificid subject_id age   gender label status outcome getsout    rt
##    <chr>           <int> <chr> <chr>  <chr>  <int>   <int>   <int> <int>
##  1 5e8478499~    8585559 ""    ""     surv~     NA      NA      NA  7577
##  2 5e8478499~    8585559 "19"  "M"    surv~     NA      NA      NA 13077
##  3 5e87b396c~    3803227 ""    ""     surv~     NA      NA      NA 25270
##  4 5e87b396c~    3803227 "19"  "F"    surv~     NA      NA      NA 22506
##  5 5e87b396c~    3803227 "19"  "F"    scal~      1       2       1    NA
##  6 5e8478499~    8585559 "19"  "M"    scal~      1       2       2    NA
##  7 5e87b396c~    3803227 "19"  "F"    scal~      1       2       2    NA
##  8 5e8478499~    8585559 "19"  "M"    scal~      1       1       1    NA
##  9 5e87b396c~    3803227 "19"  "F"    scal~      1       1       0    NA
## 10 5e8478499~    8585559 "19"  "M"    scal~      2       2       0    NA
## # ... with 5,145 more rows, and 35 more variables: time_elapsed <chr>,
## #   internal_node_id <chr>, trial_type <chr>, trial_index <chr>,
## #   responses <chr>, date <chr>, time <chr>, datefinish <chr>,
## #   timefinish <dbl>, gamble_choice_A <int>, gamble_choice_B <int>,
## #   participant_id <int>, responsibility_rating_p0 <int>,
## #   responsibility_rating_p1 <int>, responsibility_rating_p2 <int>,
## #   responsibility_time_p0 <dbl>, responsibility_time_p1 <dbl>,
## #   responsibility_time_p2 <dbl>, time_choice_end <dbl>,
## #   time_choice_made <dbl>, time_choice_result_end <dbl>,
…
