Pilot 2 Analysis
…
Open science

Preregistration

Experiment 2 was preregistered on the Open Science Framework platform (OSF). The analysis plan deviated from the preregistration in that participants are removed for using the same gamble choice response key on consecutive trials only if they used the same key for all trials in a block (after removing trials with no response).

Open materials

Materials for the studies can be found on the GitHub repository as it stood on 26th May 2020.

Open data

Data for this pilot experiment are available from GitHub in .csv format.

## # A tibble: 5,738 x 32
##    prolificid subject_id   age gender label trialnum status outcome getsout
##    <chr>           <int> <int> <chr>  <chr>    <int>  <int>   <int>   <int>
##  1 5d4755feb~    8551490    NA ""     surv~       NA     NA      NA      NA
##  2 5d4755feb~    8551490    25 "M"    surv~       NA     NA      NA      NA
##  3 5d4755feb~    8551490    25 "M"    scal~       36      2       1       2
##  4 5d4755feb~    8551490    25 "M"    scal~       37      1       2       1
##  5 5d4755feb~    8551490    25 "M"    scal~        1      1       1       1
##  6 5d4755feb~    8551490    25 "M"    scal~       12      2       1       2
##  7 5d4755feb~    8551490    25 "M"    scal~        2      2       1       1
##  8 5d4755feb~    8551490    25 "M"    scal~       15      1       2       2
##  9 5d4755feb~    8551490    25 "M"    scal~        9      1       1       1
## 10 5d4755feb~    8551490    25 "M"    scal~       21      1       2       1
## # ... with 5,728 more rows, and 23 more variables: bloc <int>, img1 <int>,
## #   img2 <int>, buttonchoice <int>, rtchoice <int>, rt <dbl>, response <int>,
## #   key_press <lgl>, time_elapsed <int>, internal_node_id <chr>,
## #   trial_type <chr>, trial_index <int>, stimulus <chr>, responses <chr>,
## #   playerout <chr>, playeroutnumber <chr>, rated <chr>, date <chr>,
## #   time <chr>, datefinish <chr>, timefinish <chr>, X <chr>, X.1 <dbl>
…
